{
    "Accelerate.framework": 2,
    "AudioToolbox.framework": 2,
    "AVFoundation.framework": 2,
    "CoreMedia.framework": 2,
    "CoreVideo.framework": 2,
    "Foundation.framework": 1,
    "OpenGLES.framework": 2,
    "QuartzCore.framework": 2,
    "Security.framework": 3,
    "UIKit.framework": 2,
    "libc++.dylib": 2,
    "CFNetwork.framework": 1,
    "CoreLocation.framework": 4,
    "MessageUI.framework": 3,
    "SafariServices.framework": 1,
    "SystemConfiguration.framework": 5,
    "libPayPalMobile.a": 1,
    "CoreTelephony.framework": 2,
    "WebKit.framework": 1,
    "UserNotifications.framework": 1,
    "Social.framework": 1
}